<svg width="20" height="20" viewBox="0 0 20 20" fill="none" xmlns="http://www.w3.org/2000/svg">
<path fill-rule="evenodd" clip-rule="evenodd" d="M14.6377 7.44526C14.3774 7.18491 13.9553 7.18491 13.6949 7.44526L9.99967 11.1405L6.30441 7.44526C6.04406 7.18491 5.62195 7.18491 5.3616 7.44526C5.10125 7.70561 5.10125 8.12772 5.3616 8.38807L9.99967 13.0261L14.6377 8.38807C14.8981 8.12772 14.8981 7.70561 14.6377 7.44526Z" fill="#054EDB"/>
</svg>
