<svg width="20" height="20" viewBox="0 0 20 20" fill="none" xmlns="http://www.w3.org/2000/svg">
<path d="M4.66602 8L9.99935 13.3333L15.3327 8" stroke="#8B96B1" stroke-width="2" stroke-linecap="round" stroke-linejoin="round"/>
</svg>
