<svg width="340" height="542" viewBox="0 0 340 542" fill="none" xmlns="http://www.w3.org/2000/svg">
<rect width="340" height="542" rx="2" fill="url(#paint0_radial)"/>
<path d="M211.667 236H128.333C123.733 236.005 120.005 239.733 120 244.333V297.667C120.005 302.267 123.733 305.995 128.333 306H211.667C212.134 306.002 212.601 305.961 213.062 305.878C217.072 305.207 220.008 301.733 220 297.667V244.333C219.995 239.733 216.267 236.005 211.667 236ZM128.333 302.667C125.743 302.666 123.581 300.687 123.353 298.107L156.583 276.38L190.377 302.667H128.333ZM216.667 297.667C216.669 300.113 214.898 302.2 212.483 302.595C212.214 302.644 211.94 302.667 211.667 302.667H195.805L173.723 285.482L193.47 269.692L216.667 283.61V297.667ZM216.667 279.723L194.192 266.238C193.594 265.879 192.836 265.93 192.292 266.365L171.013 283.382L157.688 273.018C157.127 272.582 156.351 272.55 155.755 272.938L123.333 294.137V244.333C123.333 241.572 125.572 239.333 128.333 239.333H211.667C214.428 239.333 216.667 241.572 216.667 244.333V279.723Z" fill="#BFBFBF"/>
<path d="M170 246C164.477 246 160 250.477 160 256C160.005 261.521 164.479 265.995 170 266C175.523 266 180 261.523 180 256C180 250.477 175.523 246 170 246ZM170 262.667C166.318 262.667 163.333 259.682 163.333 256C163.333 252.318 166.318 249.333 170 249.333C173.682 249.333 176.667 252.318 176.667 256C176.667 259.682 173.682 262.667 170 262.667Z" fill="#BFBFBF"/>
<defs>
<radialGradient id="paint0_radial" cx="0" cy="0" r="1" gradientUnits="userSpaceOnUse" gradientTransform="translate(21.3444 71.6437) rotate(59.36) scale(546.68 633.514)">
<stop stop-color="#F0F0F0"/>
<stop offset="1" stop-color="#F0F0F0"/>
</radialGradient>
</defs>
</svg>
