<svg width="40" height="40" viewBox="0 0 40 40" fill="none" xmlns="http://www.w3.org/2000/svg">
<path d="M19.1653 3.33008C9.51018 3.33008 1.66406 11.1762 1.66406 20.8313C1.66406 30.4864 9.51018 38.3325 19.1653 38.3325C28.8204 38.3325 36.6665 30.4864 36.6665 20.8313C36.6665 18.4932 36.198 16.1817 35.2886 14.0277L33.7507 14.6736C34.5735 16.6225 34.9994 18.7158 34.9994 20.8313C34.9994 29.5857 27.9197 36.6655 19.1653 36.6655C10.4109 36.6655 3.33114 29.5857 3.33114 20.8313C3.33114 12.0769 10.4109 4.99715 19.1653 4.99715C21.2812 4.99715 23.3738 5.42281 25.323 6.24592L25.9751 4.70803C23.8207 3.79828 21.5039 3.33008 19.1653 3.33008Z" fill="#171717"/>
<path d="M19.1503 11.6535C19.0409 11.6555 18.9329 11.679 18.8325 11.7227C18.7321 11.7665 18.6413 11.8296 18.5654 11.9084C18.4894 11.9872 18.4297 12.0803 18.3897 12.1822C18.3497 12.2841 18.3301 12.3929 18.3322 12.5024V20.7763C18.3324 20.995 18.4185 21.2049 18.5721 21.3606L22.7367 25.5868C22.8138 25.6648 22.9056 25.7269 23.0067 25.7694C23.1078 25.812 23.2164 25.8342 23.3261 25.8348C23.4358 25.8354 23.5445 25.8144 23.6461 25.7729C23.7477 25.7315 23.8401 25.6704 23.9181 25.5932C23.9961 25.5161 24.0581 25.4243 24.1006 25.3231C24.1431 25.222 24.1653 25.1135 24.1658 25.0037C24.1663 24.894 24.1453 24.7853 24.1038 24.6837C24.0623 24.5822 24.0012 24.4898 23.924 24.4118L19.9993 20.4379V12.4962C20.0005 12.3847 19.9794 12.274 19.9371 12.1708C19.8948 12.0676 19.8322 11.9739 19.7531 11.8953C19.6739 11.8167 19.5798 11.7548 19.4762 11.7133C19.3727 11.6717 19.2619 11.6514 19.1503 11.6535Z" fill="#171717"/>
<path d="M19.0833 5.83397C18.8623 5.84464 18.6546 5.94265 18.5058 6.10646C18.357 6.27027 18.2794 6.48646 18.29 6.70748C18.3006 6.92851 18.3986 7.13627 18.5623 7.28509C18.7261 7.4339 18.9423 7.51158 19.1633 7.50105C19.2728 7.50108 19.3812 7.47954 19.4823 7.43766C19.5835 7.39579 19.6754 7.33439 19.7528 7.25699C19.8303 7.17958 19.8917 7.08769 19.9336 6.98654C19.9755 6.8854 19.9971 6.77699 19.9971 6.66751C19.9971 6.55803 19.9755 6.44962 19.9336 6.34847C19.8917 6.24733 19.8303 6.15543 19.7528 6.07802C19.6754 6.00062 19.5835 5.93923 19.4823 5.89735C19.3812 5.85548 19.2728 5.83394 19.1633 5.83397C19.1367 5.83269 19.11 5.83269 19.0833 5.83397Z" fill="#171717"/>
<path d="M19.0835 34.168C18.8624 34.1786 18.6546 34.2766 18.5059 34.4404C18.3571 34.6042 18.2794 34.8204 18.29 35.0415C18.3006 35.2625 18.3986 35.4703 18.5624 35.6191C18.7262 35.7679 18.9424 35.8456 19.1634 35.835C19.3845 35.835 19.5965 35.7472 19.7528 35.5909C19.9092 35.4346 19.997 35.2226 19.997 35.0015C19.997 34.7804 19.9092 34.5684 19.7528 34.4121C19.5965 34.2558 19.3845 34.168 19.1634 34.168C19.1368 34.1667 19.1101 34.1667 19.0835 34.168Z" fill="#171717"/>
<path d="M33.2513 20.001C33.0303 20.0116 32.8226 20.1096 32.6738 20.2734C32.525 20.4373 32.4474 20.6534 32.458 20.8745C32.4686 21.0955 32.5666 21.3033 32.7303 21.4521C32.8941 21.6009 33.1103 21.6786 33.3313 21.668C33.5524 21.668 33.7644 21.5802 33.9207 21.4239C34.077 21.2676 34.1648 21.0556 34.1648 20.8345C34.1648 20.6134 34.077 20.4014 33.9207 20.2451C33.7644 20.0888 33.5524 20.001 33.3313 20.001C33.3047 19.9997 33.278 19.9997 33.2513 20.001Z" fill="#171717"/>
<path d="M4.91922 20.001C4.69821 20.0116 4.49048 20.1097 4.34173 20.2735C4.19297 20.4373 4.11536 20.6535 4.12596 20.8745C4.13656 21.0955 4.23451 21.3032 4.39826 21.4521C4.56202 21.6009 4.77817 21.6786 4.99919 21.668C5.22026 21.668 5.43227 21.5802 5.58859 21.4239C5.74491 21.2676 5.83273 21.0556 5.83273 20.8345C5.83273 20.6134 5.74491 20.4014 5.58859 20.2451C5.43227 20.0888 5.22026 20.001 4.99919 20.001C4.97255 19.9997 4.94586 19.9997 4.91922 20.001Z" fill="#171717"/>
<path d="M9.15067 30.0156C9.04115 30.0155 8.93268 30.037 8.83146 30.0789C8.73025 30.1207 8.63828 30.1821 8.5608 30.2595C8.48332 30.3369 8.42186 30.4288 8.37992 30.53C8.33799 30.6312 8.31641 30.7396 8.31641 30.8492C8.31641 30.9587 8.33799 31.0671 8.37992 31.1683C8.42186 31.2695 8.48332 31.3614 8.5608 31.4388C8.63828 31.5162 8.73025 31.5776 8.83146 31.6195C8.93268 31.6613 9.04115 31.6828 9.15067 31.6827C9.26019 31.6828 9.36866 31.6613 9.46987 31.6195C9.57108 31.5776 9.66306 31.5162 9.74054 31.4388C9.81801 31.3614 9.87948 31.2695 9.92141 31.1683C9.96335 31.0671 9.98493 30.9587 9.98493 30.8492C9.98493 30.7396 9.96335 30.6312 9.92141 30.53C9.87948 30.4288 9.81801 30.3369 9.74054 30.2595C9.66306 30.1821 9.57108 30.1207 9.46987 30.0789C9.36866 30.037 9.26019 30.0155 9.15067 30.0156Z" fill="#171717"/>
<path d="M29.1858 30.0156C29.0763 30.0155 28.9678 30.037 28.8666 30.0789C28.7654 30.1207 28.6734 30.1821 28.596 30.2595C28.5185 30.3369 28.457 30.4288 28.4151 30.53C28.3731 30.6312 28.3516 30.7396 28.3516 30.8492C28.3516 30.9587 28.3731 31.0671 28.4151 31.1683C28.457 31.2695 28.5185 31.3614 28.596 31.4388C28.6734 31.5162 28.7654 31.5776 28.8666 31.6195C28.9678 31.6613 29.0763 31.6828 29.1858 31.6827C29.2954 31.6828 29.4038 31.6613 29.505 31.6195C29.6062 31.5776 29.6982 31.5162 29.7757 31.4388C29.8532 31.3614 29.9146 31.2695 29.9566 31.1683C29.9985 31.0671 30.0201 30.9587 30.0201 30.8492C30.0201 30.7396 29.9985 30.6312 29.9566 30.53C29.9146 30.4288 29.8532 30.3369 29.7757 30.2595C29.6982 30.1821 29.6062 30.1207 29.505 30.0789C29.4038 30.037 29.2954 30.0155 29.1858 30.0156Z" fill="#171717"/>
<path d="M9.14994 9.98047C8.92888 9.98047 8.71686 10.0683 8.56054 10.2246C8.40423 10.3809 8.31641 10.5929 8.31641 10.814C8.31641 11.0351 8.40423 11.2471 8.56054 11.4034C8.71686 11.5597 8.92888 11.6475 9.14994 11.6475C9.37101 11.6475 9.58303 11.5597 9.73935 11.4034C9.89566 11.2471 9.98348 11.0351 9.98348 10.814C9.98348 10.5929 9.89566 10.3809 9.73935 10.2246C9.58303 10.0683 9.37101 9.98047 9.14994 9.98047Z" fill="#171717"/>
<path d="M31.6667 0.833008C27.5345 0.833009 24.168 4.19951 24.168 8.33178C24.168 12.464 27.5345 15.8305 31.6667 15.8305C35.799 15.8305 39.1655 12.464 39.1655 8.33178C39.1655 4.19951 35.799 0.833006 31.6667 0.833008ZM31.6667 2.50008C34.8983 2.50008 37.4984 5.10024 37.4984 8.33178C37.4984 11.5633 34.8983 14.1635 31.6667 14.1635C28.4352 14.1635 25.835 11.5633 25.835 8.33178C25.835 5.10024 28.4352 2.50009 31.6667 2.50008Z" fill="#171717"/>
<path d="M28.3299 4.99805C28.2204 4.99802 28.112 5.01956 28.0108 5.06144C27.9097 5.10331 27.8177 5.16471 27.7403 5.24211C27.6629 5.31951 27.6015 5.41141 27.5596 5.51256C27.5177 5.6137 27.4961 5.72211 27.4961 5.83159C27.4961 5.94107 27.5177 6.04948 27.5596 6.15063C27.6015 6.25177 27.6629 6.34367 27.7403 6.42107C27.8177 6.49848 27.9097 6.55987 28.0108 6.60175C28.112 6.64362 28.2204 6.66516 28.3299 6.66513H29.1665V7.50174H28.3299C28.1098 7.50252 27.8991 7.59027 27.7435 7.74584C27.5879 7.90142 27.5002 8.11219 27.4994 8.33221V10.8359C27.5002 11.0559 27.5879 11.2667 27.7435 11.4223C27.8991 11.5778 28.1098 11.6656 28.3299 11.6664H29.9969C30.218 11.6664 30.43 11.5785 30.5863 11.4222C30.7427 11.2659 30.8305 11.0539 30.8305 10.8328C30.8305 10.6118 30.7427 10.3997 30.5863 10.2434C30.43 10.0871 30.218 9.99928 29.9969 9.99928H29.1665V9.16882H29.9969C30.1069 9.16924 30.2159 9.14789 30.3176 9.106C30.4193 9.06411 30.5117 9.0025 30.5895 8.92473C30.6672 8.84695 30.7288 8.75456 30.7707 8.65287C30.8126 8.55117 30.834 8.44219 30.8336 8.33221V5.83467C30.834 5.72468 30.8126 5.6157 30.7707 5.51401C30.7288 5.41232 30.6672 5.31992 30.5895 5.24215C30.5117 5.16438 30.4193 5.10277 30.3176 5.06088C30.2159 5.01898 30.1069 4.99763 29.9969 4.99805H28.3299Z" fill="#171717"/>
<path d="M34.9863 4.9855C34.8768 4.98748 34.7688 5.01102 34.6684 5.05476C34.568 5.09851 34.4773 5.1616 34.4013 5.24043C34.3253 5.31927 34.2656 5.41231 34.2256 5.51422C34.1856 5.61614 34.1661 5.72494 34.1681 5.83442V10.8356C34.168 10.9452 34.1896 11.0536 34.2314 11.1548C34.2733 11.256 34.3347 11.3479 34.4121 11.4254C34.4895 11.5028 34.5814 11.5643 34.6826 11.6062C34.7837 11.6481 34.8921 11.6697 35.0016 11.6697C35.1112 11.6697 35.2196 11.6481 35.3207 11.6062C35.4219 11.5643 35.5138 11.5028 35.5912 11.4254C35.6686 11.3479 35.73 11.256 35.7719 11.1548C35.8137 11.0536 35.8353 10.9452 35.8352 10.8356V5.83442C35.8373 5.72236 35.8168 5.61102 35.7749 5.50708C35.7329 5.40313 35.6705 5.30871 35.5912 5.22945C35.512 5.1502 35.4176 5.08775 35.3136 5.04583C35.2097 5.00391 35.0983 4.98339 34.9863 4.9855Z" fill="#171717"/>
<path d="M32.4885 4.98541C32.3785 4.98659 32.2699 5.00953 32.1688 5.05292C32.0677 5.0963 31.9762 5.15927 31.8996 5.23819C31.8229 5.31711 31.7627 5.41041 31.7223 5.51273C31.6819 5.61504 31.6622 5.72434 31.6642 5.83432V8.33186C31.6638 8.44185 31.6851 8.55083 31.727 8.65252C31.7689 8.75421 31.8305 8.84661 31.9083 8.92438C31.9861 9.00215 32.0785 9.06376 32.1802 9.10565C32.2819 9.14755 32.3908 9.1689 32.5008 9.16848H34.9983C35.2194 9.16848 35.4314 9.08066 35.5877 8.92434C35.7441 8.76802 35.8319 8.55601 35.8319 8.33494C35.8319 8.11387 35.7441 7.90186 35.5877 7.74554C35.4314 7.58922 35.2194 7.5014 34.9983 7.5014H33.3313V5.83432C33.3334 5.72279 33.313 5.61197 33.2715 5.50844C33.23 5.40491 33.1681 5.31077 33.0895 5.2316C33.0109 5.15243 32.9172 5.08985 32.814 5.04756C32.7107 5.00527 32.6001 4.98414 32.4885 4.98541Z" fill="#171717"/>
</svg>
