<svg width="40" height="40" viewBox="0 0 40 40" fill="none" xmlns="http://www.w3.org/2000/svg">
<g clip-path="url(#clip0)">
<path d="M0.741499 16.6665L7.33317 17.3998L6.6665 33.3331C6.6665 33.5542 6.7543 33.7661 6.91058 33.9224C7.06686 34.0787 7.27882 34.1665 7.49983 34.1665C29.3665 34.1665 27.7498 34.2748 28.0998 33.9081C28.4498 33.5415 28.3915 34.6831 27.6665 17.3915C34.6415 16.6165 34.5665 16.7581 34.8665 16.2831C35.1665 15.8081 35.2998 16.6081 30.7915 3.06647C30.6082 2.53314 30.6998 2.70814 23.6248 0.0498047C23.3332 -0.0501953 11.7248 -0.000195311 11.5165 -0.000195311C11.3082 -0.000195311 12.2665 -0.316862 4.70817 2.4998C4.1665 2.7498 4.55817 2.03314 0.0414991 15.5665C0.000703994 15.6849 -0.0128503 15.8111 0.00184483 15.9355C0.0165399 16.06 0.0591061 16.1795 0.126376 16.2852C0.193646 16.3909 0.283888 16.4801 0.390387 16.5461C0.496885 16.6121 0.6169 16.6533 0.741499 16.6665ZM22.4082 1.66647C22.2004 2.82028 21.5937 3.86439 20.6943 4.61633C19.7948 5.36828 18.6597 5.78024 17.4873 5.78024C16.315 5.78024 15.1799 5.36828 14.2804 4.61633C13.3809 3.86439 12.7743 2.82028 12.5665 1.66647H22.4082ZM5.6665 3.9748L10.9415 1.99147C11.1897 3.39173 11.8792 4.67592 12.9092 5.65644C13.9392 6.63696 15.2557 7.26243 16.6665 7.44147V14.1665C16.6665 14.3875 16.7543 14.5994 16.9106 14.7557C17.0669 14.912 17.2788 14.9998 17.4998 14.9998C17.7208 14.9998 17.9328 14.912 18.0891 14.7557C18.2454 14.5994 18.3332 14.3875 18.3332 14.1665V7.44147C19.7439 7.26243 21.0605 6.63696 22.0905 5.65644C23.1205 4.67592 23.81 3.39173 24.0582 1.99147L29.3332 3.9748L33.0498 15.1165L27.5998 15.7248L27.4998 13.3331C27.4998 13.1121 27.412 12.9002 27.2558 12.7439C27.0995 12.5876 26.8875 12.4998 26.6665 12.4998C26.4455 12.4998 26.2335 12.5876 26.0772 12.7439C25.921 12.9002 25.8332 13.1121 25.8332 13.3331L26.6665 32.4998H8.33317L9.1665 13.3331C9.1665 13.1121 9.0787 12.9002 8.92242 12.7439C8.76614 12.5876 8.55418 12.4998 8.33317 12.4998C8.11215 12.4998 7.90019 12.5876 7.74391 12.7439C7.58763 12.9002 7.49983 13.1121 7.49983 13.3331L7.39983 15.7581L1.94983 15.1498L5.6665 3.9748Z" fill="#171717"/>
<path d="M39.1667 32.5H38.3333V1.66667H39.1667C39.3877 1.66667 39.5996 1.57887 39.7559 1.42259C39.9122 1.26631 40 1.05435 40 0.833333C40 0.61232 39.9122 0.400358 39.7559 0.244078C39.5996 0.0877974 39.3877 0 39.1667 0L35.8333 0C35.6123 0 35.4004 0.0877974 35.2441 0.244078C35.0878 0.400358 35 0.61232 35 0.833333C35 1.05435 35.0878 1.26631 35.2441 1.42259C35.4004 1.57887 35.6123 1.66667 35.8333 1.66667H36.6667V32.5H35.8333C35.6123 32.5 35.4004 32.5878 35.2441 32.7441C35.0878 32.9004 35 33.1123 35 33.3333C35 33.5543 35.0878 33.7663 35.2441 33.9226C35.4004 34.0789 35.6123 34.1667 35.8333 34.1667H39.1667C39.3877 34.1667 39.5996 34.0789 39.7559 33.9226C39.9122 33.7663 40 33.5543 40 33.3333C40 33.1123 39.9122 32.9004 39.7559 32.7441C39.5996 32.5878 39.3877 32.5 39.1667 32.5Z" fill="#171717"/>
<path d="M33.3333 35.8333V36.6667H1.66667V35.8333C1.66667 35.6123 1.57887 35.4004 1.42259 35.2441C1.26631 35.0878 1.05435 35 0.833333 35C0.61232 35 0.400358 35.0878 0.244078 35.2441C0.0877974 35.4004 0 35.6123 0 35.8333L0 39.1667C0 39.3877 0.0877974 39.5996 0.244078 39.7559C0.400358 39.9122 0.61232 40 0.833333 40C1.05435 40 1.26631 39.9122 1.42259 39.7559C1.57887 39.5996 1.66667 39.3877 1.66667 39.1667V38.3333H33.3333V39.1667C33.3333 39.3877 33.4211 39.5996 33.5774 39.7559C33.7337 39.9122 33.9457 40 34.1667 40C34.3877 40 34.5996 39.9122 34.7559 39.7559C34.9122 39.5996 35 39.3877 35 39.1667V35.8333C35 35.6123 34.9122 35.4004 34.7559 35.2441C34.5996 35.0878 34.3877 35 34.1667 35C33.9457 35 33.7337 35.0878 33.5774 35.2441C33.4211 35.4004 33.3333 35.6123 33.3333 35.8333Z" fill="#171717"/>
<path d="M20.0013 9.99967C20.2223 9.99967 20.4343 9.91188 20.5906 9.7556C20.7468 9.59932 20.8346 9.38735 20.8346 9.16634C20.8346 8.94533 20.7468 8.73337 20.5906 8.57709C20.4343 8.42081 20.2223 8.33301 20.0013 8.33301C19.7803 8.33301 19.5683 8.42081 19.412 8.57709C19.2558 8.73337 19.168 8.94533 19.168 9.16634C19.168 9.38735 19.2558 9.59932 19.412 9.7556C19.5683 9.91188 19.7803 9.99967 20.0013 9.99967Z" fill="#171717"/>
<path d="M20.0013 13.3337C20.2223 13.3337 20.4343 13.2459 20.5906 13.0896C20.7468 12.9333 20.8346 12.7213 20.8346 12.5003C20.8346 12.2793 20.7468 12.0674 20.5906 11.9111C20.4343 11.7548 20.2223 11.667 20.0013 11.667C19.7803 11.667 19.5683 11.7548 19.412 11.9111C19.2558 12.0674 19.168 12.2793 19.168 12.5003C19.168 12.7213 19.2558 12.9333 19.412 13.0896C19.5683 13.2459 19.7803 13.3337 20.0013 13.3337Z" fill="#171717"/>
</g>
<defs>
<clipPath id="clip0">
<rect width="40" height="40" fill="white"/>
</clipPath>
</defs>
</svg>
