<svg width="41" height="40" viewBox="0 0 41 40" fill="none" xmlns="http://www.w3.org/2000/svg">
<circle cx="20.5" cy="20" r="19" stroke="#1D9F22" stroke-width="2"/>
<path fill-rule="evenodd" clip-rule="evenodd" d="M29.754 14.0349C30.2866 14.5433 30.3063 15.3873 29.7978 15.92L20.2524 25.92C20.0008 26.1836 19.6523 26.3327 19.2879 26.3327C18.9235 26.3327 18.575 26.1836 18.3234 25.92L12.8689 20.2057C12.3604 19.673 12.38 18.829 12.9127 18.3206C13.4454 17.8121 14.2894 17.8318 14.7978 18.3644L19.2879 23.0683L27.8689 14.0787C28.3773 13.5461 29.2213 13.5264 29.754 14.0349Z" fill="#1D9F22"/>
</svg>
