<svg width="20" height="20" viewBox="0 0 20 20" fill="none" xmlns="http://www.w3.org/2000/svg">
<path d="M15.3023 3.51797C15.6278 3.19253 16.1554 3.19253 16.4809 3.51797C16.8063 3.8434 16.8063 4.37104 16.4809 4.69648L4.69575 16.4816C4.37031 16.807 3.84267 16.807 3.51723 16.4816C3.1918 16.1562 3.1918 15.6285 3.51724 15.3031L15.3023 3.51797Z" fill="#054EDB"/>
<path d="M16.482 15.3033C16.8075 15.6288 16.8075 16.1564 16.482 16.4818C16.1566 16.8073 15.629 16.8073 15.3035 16.4818L3.51841 4.69672C3.19297 4.37128 3.19297 3.84365 3.51841 3.51821C3.84385 3.19277 4.37149 3.19277 4.69692 3.51821L16.482 15.3033Z" fill="#054EDB"/>
</svg>
