<svg width="40" height="40" viewBox="0 0 40 40" fill="none" xmlns="http://www.w3.org/2000/svg">
<rect width="40" height="40" rx="10" fill="#171717"/>
<path d="M25.832 19.1663H20.832V14.1663C20.832 13.9453 20.7442 13.7334 20.588 13.5771C20.4317 13.4208 20.2197 13.333 19.9987 13.333C19.7777 13.333 19.5657 13.4208 19.4094 13.5771C19.2532 13.7334 19.1654 13.9453 19.1654 14.1663V19.1663H14.1654C13.9444 19.1663 13.7324 19.2541 13.5761 19.4104C13.4198 19.5667 13.332 19.7787 13.332 19.9997C13.332 20.2207 13.4198 20.4326 13.5761 20.5889C13.7324 20.7452 13.9444 20.833 14.1654 20.833H19.1654V25.833C19.1654 26.054 19.2532 26.266 19.4094 26.4223C19.5657 26.5785 19.7777 26.6663 19.9987 26.6663C20.2197 26.6663 20.4317 26.5785 20.588 26.4223C20.7442 26.266 20.832 26.054 20.832 25.833V20.833H25.832C26.053 20.833 26.265 20.7452 26.4213 20.5889C26.5776 20.4326 26.6654 20.2207 26.6654 19.9997C26.6654 19.7787 26.5776 19.5667 26.4213 19.4104C26.265 19.2541 26.053 19.1663 25.832 19.1663Z" fill="white"/>
</svg>
