<svg width="20" height="20" viewBox="0 0 20 20" fill="none" xmlns="http://www.w3.org/2000/svg">
<path d="M10.0013 1.66699C5.4013 1.66699 1.66797 5.40033 1.66797 10.0003C1.66797 14.6003 5.4013 18.3337 10.0013 18.3337C14.6013 18.3337 18.3346 14.6003 18.3346 10.0003C18.3346 5.40033 14.6013 1.66699 10.0013 1.66699ZM10.0013 16.667C6.31797 16.667 3.33464 13.6837 3.33464 10.0003C3.33464 6.31699 6.31797 3.33366 10.0013 3.33366C13.6846 3.33366 16.668 6.31699 16.668 10.0003C16.668 13.6837 13.6846 16.667 10.0013 16.667Z" fill="#8B96B1"/>
<path d="M9.9987 14.1663C12.2999 14.1663 14.1654 12.3009 14.1654 9.99967C14.1654 7.69849 12.2999 5.83301 9.9987 5.83301C7.69751 5.83301 5.83203 7.69849 5.83203 9.99967C5.83203 12.3009 7.69751 14.1663 9.9987 14.1663Z" fill="#8B96B1"/>
</svg>
