<svg width="23" height="23" viewBox="0 0 23 23" fill="none" xmlns="http://www.w3.org/2000/svg">
<path d="M10.1792 2.11716C10.4696 1.36785 11.5299 1.36785 11.8203 2.11716L13.5749 6.64434C13.6998 6.96649 14.0016 7.18577 14.3465 7.20497L19.1944 7.47474C19.9967 7.5194 20.3244 8.52773 19.7015 9.03548L15.9381 12.1032C15.6703 12.3215 15.555 12.6763 15.6433 13.0103L16.8848 17.7042C17.0903 18.4811 16.2326 19.1043 15.5572 18.6688L11.4766 16.0376C11.1863 15.8504 10.8132 15.8504 10.5228 16.0376L6.44231 18.6688C5.76692 19.1043 4.90918 18.4811 5.11467 17.7042L6.35615 13.0103C6.44449 12.6763 6.32921 12.3215 6.06141 12.1032L2.29802 9.03548C1.67512 8.52773 2.00275 7.5194 2.80513 7.47474L7.65295 7.20497C7.99791 7.18577 8.29973 6.96649 8.42458 6.64434L10.1792 2.11716Z" stroke="#FD9B08"/>
<path d="M10.4106 2.16509C10.7077 1.39875 11.792 1.39875 12.089 2.16509L13.8835 6.79516C14.0112 7.12463 14.3199 7.34889 14.6727 7.36853L19.6307 7.64444C20.4513 7.6901 20.7864 8.72135 20.1493 9.24064L16.3004 12.3781C16.0265 12.6014 15.9086 12.9642 15.9989 13.3058L17.2687 18.1064C17.4788 18.901 16.6016 19.5383 15.9108 19.0929L11.7376 16.4019C11.4406 16.2104 11.0591 16.2104 10.7621 16.4019L6.58881 19.0929C5.89808 19.5383 5.02084 18.901 5.231 18.1064L6.5007 13.3058C6.59105 12.9642 6.47314 12.6014 6.19926 12.3781L2.35033 9.24064C1.71328 8.72135 2.04836 7.6901 2.86897 7.64444L7.82697 7.36853C8.17977 7.34889 8.48844 7.12463 8.61614 6.79516L10.4106 2.16509Z" fill="#FD9B08"/>
</svg>
